{
  "$schema": "https://docs.renovatebot.com/renovate-schema.json",
  "extends": [
    ":semanticCommits",
    "config:base",
    "schedule:monthly"
  ],
  "packageRules": [
    {
      "matchDatasources": [
        "docker"
      ],
      "matchUpdateTypes": [
        "minor",
        "patch",
        "pin",
        "pinDigest",
        "digest"
      ],
      "automerge": true,
      "automergeType": "branch"
    }
  ]
}
